{
    "count": 204,
    "next": "https://wger.de/api/v2/exerciseimage/?limit=20&offset=20",
    "previous": null,
    "results": [
        {
            "id": 1,
            "license_author": "",
            "status": "2",
            "image": "https://wger.de/media/exercise-images/4/Crunches-1.png",
            "is_main": true,
            "license": 1,
            "exercise": 4
        },
        {
            "id": 2,
            "license_author": "",
            "status": "2",
            "image": "https://wger.de/media/exercise-images/4/Crunches-2.png",
            "is_main": true,
            "license": 1,
            "exercise": 4
        },
        {
            "id": 3,
            "license_author": "",
            "status": "2",
            "image": "https://wger.de/media/exercise-images/91/Crunches-1.png",
            "is_main": true,
            "license": 1,
            "exercise": 91
        },
        {
            "id": 4,
            "license_author": "Everkinetic",
            "status": "2",
            "image": "https://wger.de/media/exercise-images/91/Crunches-2.png",
            "is_main": true,
            "license": 1,
            "exercise": 91
        },
        {
            "id": 5,
            "license_author": "Everkinetic",
            "status": "2",
            "image": "https://wger.de/media/exercise-images/32/Decline-crunch-1.png",
            "is_main": true,
            "license": 1,
            "exercise": 32
        },
        {
            "id": 6,
            "license_author": "Everkinetic",
            "status": "2",
            "image": "https://wger.de/media/exercise-images/32/Decline-crunch-2.png",
            "is_main": true,
            "license": 1,
            "exercise": 32
        },
        {
            "id": 7,
            "license_author": "",
            "status": "2",
            "image": "https://wger.de/media/exercise-images/93/Decline-crunch-1.png",
            "is_main": true,
            "license": 1,
            "exercise": 93
        },
        {
            "id": 8,
            "license_author": "",
            "status": "2",
            "image": "https://wger.de/media/exercise-images/93/Decline-crunch-2.png",
            "is_main": true,
            "license": 1,
            "exercise": 93
        },
        {
            "id": 9,
            "license_author": "Everkinetic",
            "status": "2",
            "image": "https://wger.de/media/exercise-images/60/Hyperextensions-1.png",
            "is_main": true,
            "license": 1,
            "exercise": 60
        },
        {
            "id": 10,
            "license_author": "Everkinetic",
            "status": "2",
            "image": "https://wger.de/media/exercise-images/60/Hyperextensions-2.png",
            "is_main": true,
            "license": 1,
            "exercise": 60
        },
        {
            "id": 11,
            "license_author": "Everkinetic",
            "status": "2",
            "image": "https://wger.de/media/exercise-images/128/Hyperextensions-1.png",
            "is_main": true,
            "license": 1,
            "exercise": 128
        },
        {
            "id": 12,
            "license_author": "Everkinetic",
            "status": "2",
            "image": "https://wger.de/media/exercise-images/128/Hyperextensions-2.png",
            "is_main": true,
            "license": 1,
            "exercise": 128
        },
        {
            "id": 13,
            "license_author": "Everkinetic",
            "status": "2",
            "image": "https://wger.de/media/exercise-images/38/Narrow-grip-bench-press-1.png",
            "is_main": true,
            "license": 1,
            "exercise": 38
        },
        {
            "id": 14,
            "license_author": "Everkinetic",
            "status": "2",
            "image": "https://wger.de/media/exercise-images/38/Narrow-grip-bench-press-2.png",
            "is_main": true,
            "license": 1,
            "exercise": 38
        },
        {
            "id": 15,
            "license_author": "Everkinetic",
            "status": "2",
            "image": "https://wger.de/media/exercise-images/88/Narrow-grip-bench-press-1.png",
            "is_main": true,
            "license": 1,
            "exercise": 88
        },
        {
            "id": 16,
            "license_author": "Everkinetic",
            "status": "2",
            "image": "https://wger.de/media/exercise-images/88/Narrow-grip-bench-press-2.png",
            "is_main": true,
            "license": 1,
            "exercise": 88
        },
        {
            "id": 17,
            "license_author": "Everkinetic",
            "status": "2",
            "image": "https://wger.de/media/exercise-images/3/Standing-biceps-curl-1.png",
            "is_main": true,
            "license": 1,
            "exercise": 3
        },
        {
            "id": 18,
            "license_author": "Everkinetic",
            "status": "2",
            "image": "https://wger.de/media/exercise-images/3/Standing-biceps-curl-2.png",
            "is_main": true,
            "license": 1,
            "exercise": 3
        },
        {
            "id": 19,
            "license_author": "Everkinetic",
            "status": "2",
            "image": "https://wger.de/media/exercise-images/129/Standing-biceps-curl-1.png",
            "is_main": true,
            "license": 1,
            "exercise": 129
        },
        {
            "id": 20,
            "license_author": "Everkinetic",
            "status": "2",
            "image": "https://wger.de/media/exercise-images/129/Standing-biceps-curl-2.png",
            "is_main": true,
            "license": 1,
            "exercise": 129
        }
    ]
}