{
    "count": 224,
    "next": "https://wger.de/api/v2/exercise/?language=2&limit=20&offset=20",
    "previous": null,
    "results": [
        {
            "id": 345,
            "license_author": "deusinvictus",
            "status": "2",
            "description": "<p>Two Handed Russian Style Kettlebell swing</p>",
            "name": "2 Handed Kettlebell Swing",
            "name_original": "2 Handed Kettlebell swing",
            "creation_date": "2015-08-03",
            "uuid": "c788d643-150a-4ac7-97ef-84643c6419bf",
            "license": 2,
            "category": 10,
            "language": 2,
            "muscles": [],
            "muscles_secondary": [],
            "equipment": [
                10
            ]
        },
        {
            "id": 227,
            "license_author": "trzr23",
            "status": "2",
            "description": "<p>Very common shoulder exercise.</p>\n<p>\u00a0</p>\n<p>As shown here:\u00a0https://www.youtube.com/watch?v=vj2w851ZHRM</p>",
            "name": "Arnold Shoulder Press",
            "name_original": "Arnold Shoulder Press",
            "creation_date": "2014-03-09",
            "uuid": "53ca25b3-61d9-4f72-bfdb-492b83484ff5",
            "license": 1,
            "category": 13,
            "language": 2,
            "muscles": [],
            "muscles_secondary": [],
            "equipment": [
                3
            ]
        },
        {
            "id": 289,
            "license_author": "GrosseHund",
            "status": "2",
            "description": "<p>Grab dumbbells and extend arms to side and hold as long as you can</p>",
            "name": "Axe Hold",
            "name_original": "axe hold",
            "creation_date": "2014-11-02",
            "uuid": "6add5973-86d0-4543-928a-6bb8b3f34efc",
            "license": 1,
            "category": 8,
            "language": 2,
            "muscles": [
                2,
                9
            ],
            "muscles_secondary": [
                9
            ],
            "equipment": [
                3
            ]
        },
        {
            "id": 637,
            "license_author": "axel",
            "status": "2",
            "description": "Place a barbell in a rack just below shoulder-height. Dip under the bar to put it behind the neck across the top of the back, and grip the bar with the hands wider than shoulder-width apart. Lift the chest up and squeeze the shoulder blades together to keep the straight back throughout the entire movement. Stand up to bring the bar off the rack and step backwards, then place the feet so that they are a little wider than shoulder-width apart. Sit back into hips and keep the back straight and the chest up, squatting down so the hips are below the knees. From the bottom of the squat, press feet into the ground and push hips forward to return to the top of the standing position.",
            "name": "Back Squat",
            "name_original": "Back Squat",
            "creation_date": "2019-05-29",
            "uuid": "0fd6154d-fb53-4b24-acc0-1c5c05b57ebc",
            "license": 2,
            "category": 8,
            "language": 2,
            "muscles": [],
            "muscles_secondary": [],
            "equipment": []
        },
        {
            "id": 343,
            "license_author": "sevae",
            "status": "2",
            "description": "<p>Place a barbell on the floor at your feet.</p>\n<p>Bending at the waist, grip the barbell with a shoulder with overhand grip.</p>\n<p>With a slow controlled motion, roll the bar out so that your back is straight.</p>\n<p>Roll back up raising your hips and butt as you return to the starting position.</p>",
            "name": "Barbell Ab Rollout",
            "name_original": "Barbell Ab Rollout",
            "creation_date": "2015-07-27",
            "uuid": "1b9dc5bc-790b-4e21-a55d-f8b3115e94c5",
            "license": 2,
            "category": 10,
            "language": 2,
            "muscles": [
                14,
                6
            ],
            "muscles_secondary": [
                2,
                12
            ],
            "equipment": [
                1
            ]
        },
        {
            "id": 407,
            "license_author": "BePieToday",
            "status": "2",
            "description": "<p>Perform leg squats with barbell behind your legs</p>",
            "name": "Barbell Hack Squats",
            "name_original": "Barbell Hack Squats",
            "creation_date": "2016-07-30",
            "uuid": "1215dad0-b7e0-42c6-80d4-112f69acb68a",
            "license": 2,
            "category": 9,
            "language": 2,
            "muscles": [
                10
            ],
            "muscles_secondary": [
                8
            ],
            "equipment": [
                1
            ]
        },
        {
            "id": 405,
            "license_author": "Mikko Ruohola",
            "status": "2",
            "description": "<p>Put barbell on the back of your shoulders. Stand upright, then take the first step forward. Step should bring you forward so that your supporting legs knee can touch the floor. Then stand back up and repeat with the other leg.</p>\n<p>Remember to keep good posture.</p>",
            "name": "Barbell Lunges",
            "name_original": "Barbell Lunges",
            "creation_date": "2016-07-30",
            "uuid": "ae6a6c23-4616-49b7-a152-49d7461c2b7f",
            "license": 2,
            "category": 9,
            "language": 2,
            "muscles": [
                10
            ],
            "muscles_secondary": [
                8
            ],
            "equipment": [
                1
            ]
        },
        {
            "id": 344,
            "license_author": "sevae",
            "status": "2",
            "description": "<p>Position barbell overhead with narrow overhand grip.</p>\n<p>Lower forearm behind upper arm with elbows remaining overhead. Extend forearm overhead. Lower and repeat.</p>",
            "name": "Barbell Triceps Extension",
            "name_original": "Barbell Triceps Extension",
            "creation_date": "2015-07-27",
            "uuid": "2cd5e256-20a7-4bc8-a7a8-d62bf8ce00cf",
            "license": 2,
            "category": 8,
            "language": 2,
            "muscles": [
                5
            ],
            "muscles_secondary": [
                2,
                4
            ],
            "equipment": [
                1
            ]
        },
        {
            "id": 388,
            "license_author": "47db224935ff41e6ad927cedea87e1",
            "status": "2",
            "description": "<p>-Rest your weight on your palms and the balls of your feet, not dissimilar to normal pushup position</p>\n<p>-Move by stepping with your R palm and L foot, then your L palm and R foot.  Basically, walk like a lumbering bear.</p>\n<p>-Move as fast as you can.  Measure your reps/sets in either distance (i.e. 40 yards) or time (i.e. 45 seconds)</p>\n<p>-Works your Pecs, Deltoids, Triceps, Traps, Lats, Abs and Lower Back, Hip Flexors, Quads, Glutes and Calves</p>",
            "name": "Bear Walk",
            "name_original": "Bear Walk",
            "creation_date": "2016-02-29",
            "uuid": "79181b05-1429-45be-bc8a-5bf0913d22b9",
            "license": 2,
            "category": 11,
            "language": 2,
            "muscles": [],
            "muscles_secondary": [],
            "equipment": []
        },
        {
            "id": 307,
            "license_author": "nate303303",
            "status": "2",
            "description": "<p>-Rest your weight on your palms and the balls of your feet, not dissimilar to normal pushup position</p>\n<p>-Move by stepping with your R palm and L foot, then your L palm and R foot.\u00a0 Basically, walk like a lumbering bear.</p>\n<p>-Move as fast as you can.\u00a0 Measure your reps/sets in either distance (i.e. 40 yards) or time (i.e. 45 seconds)</p>\n<p>-Works your Pecs, Deltoids, Triceps, Traps, Lats, Abs and Lower Back, Hip Flexors, Quads, Glutes and Calves</p>",
            "name": "Bear Walk",
            "name_original": "Bear Walk",
            "creation_date": "2015-02-06",
            "uuid": "1b8b1657-40fd-4e3b-97b7-1c79b1079f8e",
            "license": 2,
            "category": 11,
            "language": 2,
            "muscles": [
                2,
                7,
                4,
                6,
                3,
                15,
                5
            ],
            "muscles_secondary": [
                8,
                12,
                14,
                10,
                9
            ],
            "equipment": [
                7
            ]
        },
        {
            "id": 192,
            "license_author": "sistab2",
            "status": "2",
            "description": "<p>Lay down on a bench, the bar should be directly above your eyes, the knees are somewhat angled and the feet are firmly on the floor. Concentrate, breath deeply and grab the bar more than shoulder wide. Bring it slowly down till it briefly touches your chest at the height of your nipples. Push the bar up.</p>\n<p>If you train with a high weight it is advisable to have a <em>spotter</em> that can help you up if you can't lift the weight on your own.</p>\n<p>With the width of the grip you can also control which part of the chest is trained more:</p>\n<ul>\n<li>wide grip: outer chest muscles</li>\n<li>narrow grip: inner chest muscles and triceps</li>\n</ul>",
            "name": "Bench Press",
            "name_original": "Bench Press",
            "creation_date": "2013-08-11",
            "uuid": "5da6340b-22ec-4c1b-a443-eef2f59f92f0",
            "license": 1,
            "category": 11,
            "language": 2,
            "muscles": [
                4
            ],
            "muscles_secondary": [
                2,
                5
            ],
            "equipment": [
                1,
                8
            ]
        },
        {
            "id": 97,
            "license_author": "wger.de",
            "status": "2",
            "description": "<p>The movement is very similar to benchpressing with a barbell, however, the weight is brought down to the chest at a lower point.</p>\n<p>Hold two dumbbells and lay down on a bench. Hold the weights next to the chest, at the height of your nipples and press them up till the arms are stretched. Let the weight slowly and controlled down.</p>",
            "name": "Benchpress Dumbbells",
            "name_original": "Benchpress dumbbells",
            "creation_date": null,
            "uuid": "0ec76f5d-1311-4d6d-bf79-00fa17c3061a",
            "license": 1,
            "category": 11,
            "language": 2,
            "muscles": [
                4
            ],
            "muscles_secondary": [
                2,
                5
            ],
            "equipment": [
                8,
                3
            ]
        },
        {
            "id": 88,
            "license_author": "wger.de",
            "status": "2",
            "description": "<p>Lay down on a bench, the bar is directly over your eyes, the knees form a slight angle and the feet are firmly on the ground. Hold the bar with a narrow grip (around 20cm.). Lead the weight slowly down till the arms are parallel to the floor (elbow: right angle), press then the bar up. When bringing the bar down, don't let it down on your nipples as with the regular bench pressing, but somewhat lower.</p>",
            "name": "Bench Press Narrow Grip",
            "name_original": "Bench press narrow grip",
            "creation_date": null,
            "uuid": "03d821e7-e1ac-4026-903b-d406381cbf76",
            "license": 1,
            "category": 8,
            "language": 2,
            "muscles": [
                5
            ],
            "muscles_secondary": [
                2,
                4
            ],
            "equipment": [
                1,
                8
            ]
        },
        {
            "id": 268,
            "license_author": "lakerbeezel",
            "status": "2",
            "description": "<p>Bend over slightly while holding two dumbbells.\u00a0 Pull the dumbbells up to your chest, keeping your elbows as high as you can.</p>",
            "name": "Bent High Pulls",
            "name_original": "Bent High Pulls",
            "creation_date": "2014-09-01",
            "uuid": "34ce7ec5-12a1-4bf8-b4f1-94544c3f1cfc",
            "license": 1,
            "category": 13,
            "language": 2,
            "muscles": [
                9
            ],
            "muscles_secondary": [],
            "equipment": [
                3
            ]
        },
        {
            "id": 412,
            "license_author": "warchildmd",
            "status": "2",
            "description": "<ol>\n<li>Holding a barbell with a pronated grip (palms facing down), bend your knees slightly and bring your torso forward, by bending at the waist, while keeping the back straight until it is almost parallel to the floor. Tip: Make sure that you keep the head up. The barbell should hang directly in front of you as your arms hang perpendicular to the floor and your torso. This is your starting position.</li>\n<li>Now, while keeping the torso stationary, breathe out and lift the barbell to you. Keep the elbows close to the body and only use the forearms to hold the weight. At the top contracted position, squeeze the back muscles and hold for a brief pause.</li>\n<li>Then inhale and slowly lower the barbell back to the starting position.</li>\n<li>Repeat for the recommended amount of repetitions.</li>\n</ol>",
            "name": "Bent Over Barbell Row",
            "name_original": "Bent Over Barbell Row",
            "creation_date": "2016-08-15",
            "uuid": "b8466ace-ebc7-42bb-941c-39e0e7e67a4f",
            "license": 2,
            "category": 12,
            "language": 2,
            "muscles": [],
            "muscles_secondary": [],
            "equipment": [
                1
            ]
        },
        {
            "id": 362,
            "license_author": "sebk",
            "status": "2",
            "description": "<p>With dumbbells in hand, bend at the hip until hands hang just below the knees (similar to straight-legged-deadlift starting position). Keep upper body angle constant while contracting your lats to pull you ellbows back pinching the shoulder blades at the top. Try not to stand up with every rep, check hands go below knees on every rep.</p>",
            "name": "Bentover Dumbbell Rows",
            "name_original": "Bentover Dumbbell Rows",
            "creation_date": "2016-01-05",
            "uuid": "f866fd75-c18d-4419-84b9-1b9ccd22adba",
            "license": 2,
            "category": 12,
            "language": 2,
            "muscles": [
                12
            ],
            "muscles_secondary": [
                1,
                11,
                13
            ],
            "equipment": [
                3
            ]
        },
        {
            "id": 421,
            "license_author": "apeschel",
            "status": "2",
            "description": "<p>Sit on bench while holding weights. Bend forward as far as possible, with arms slightly bent at the elbow. Perform a lateral raise while maintaining the bend in your elbow.</p>",
            "name": "Bent-over Lateral Raises",
            "name_original": "Bent-over Lateral Raises",
            "creation_date": "2016-09-29",
            "uuid": "170cc52f-345f-41b3-bdae-8a5e0c9aa449",
            "license": 2,
            "category": 13,
            "language": 2,
            "muscles": [],
            "muscles_secondary": [],
            "equipment": [
                8,
                3
            ]
        },
        {
            "id": 109,
            "license_author": "wger.de",
            "status": "2",
            "description": "<p>Grab the barbell with a wide grip (slightly more than shoulder wide) and lean forward. Your upper body is not quite parallel to the floor, but forms a slight angle. The chest's out during the whole exercise.</p>\n<p>Pull now the barbell with a fast movement towards your belly button, not further up. Go slowly down to the initial position. Don't swing with your body and keep your arms next to your body.</p>",
            "name": "Bent Over Rowing",
            "name_original": "Bent over rowing",
            "creation_date": null,
            "uuid": "f82c579e-c069-4dc7-8e36-a3266dfd8e4a",
            "license": 1,
            "category": 12,
            "language": 2,
            "muscles": [
                12
            ],
            "muscles_secondary": [
                2,
                1
            ],
            "equipment": [
                1
            ]
        },
        {
            "id": 110,
            "license_author": "wger.de",
            "status": "2",
            "description": "<p>The same as <em>regular</em> rowing, but holding a reversed grip (your palms pointing forwards):</p>\n<p>Grab the barbell with a wide grIp (slightly more than shoulder wide) and lean forward. Your upper body is not quite parallel to the floor, but forms a slight angle. The chest's out during the whole exercise.</p>\n<p>Pull now the barbell with a fast movement towards your belly button, not further up. Go slowly down to the initial position. Don't swing with your body and keep your arms next to your body.</p>",
            "name": "Bent Over Rowing Reverse",
            "name_original": "Bent over rowing reverse",
            "creation_date": null,
            "uuid": "77688310-f2cf-4d37-a854-dca906387be7",
            "license": 1,
            "category": 12,
            "language": 2,
            "muscles": [
                12
            ],
            "muscles_secondary": [
                2,
                1
            ],
            "equipment": [
                1
            ]
        },
        {
            "id": 74,
            "license_author": "wger.de",
            "status": "2",
            "description": "<p>Hold the Barbell shoulder-wide, the back is straight, the shoulders slightly back, the arms are streched. Bend the arms, bringing the weight up, with a fast movement. Without pausing, let down the bar with a slow and controlled movement.</p>\n<p>Don't allow your body to swing during the exercise, all work is done by the biceps, which are the only mucles that should move (pay attention to the elbows).</p>",
            "name": "Biceps Curls With Barbell",
            "name_original": "Biceps curls with barbell",
            "creation_date": null,
            "uuid": "c56078d2-ae85-4524-a467-d1e143b6df1a",
            "license": 1,
            "category": 8,
            "language": 2,
            "muscles": [
                1
            ],
            "muscles_secondary": [
                13
            ],
            "equipment": [
                1
            ]
        }
    ]
}